cpu.vcd
$date
	Wed May  1 17:58:48 2024
$end
$version
	Icarus Verilog
$end
$timescale
	1ps
$end
$scope module main $end
$var wire 1 ! d_stall $end
$var wire 1 " e1_stall $end
$var wire 1 # e2_stall $end
$var wire 1 $ f1_stall $end
$var wire 1 % f2_stall $end
$var wire 1 & ld_ld_hazard $end
$var wire 1 ' mem_wen $end
$var wire 1 ( mis_load $end
$var wire 1 ) mis_store_wire $end
$var wire 1 * print $end
$var wire 4 + reg_waddr [3:0] $end
$var wire 1 , reg_wen $end
$var wire 1 - self_modify_d $end
$var wire 1 . self_modify_e1 $end
$var wire 1 / self_modify_e2 $end
$var wire 1 0 self_modify_f2 $end
$var wire 1 1 temp $end
$var wire 4 2 rt [3:0] $end
$var wire 16 3 reg_wdata [15:0] $end
$var wire 16 4 reg_rdata1 [15:0] $end
$var wire 16 5 reg_rdata0 [15:0] $end
$var wire 4 6 reg_raddr1 [3:0] $end
$var wire 4 7 reg_raddr0 [3:0] $end
$var wire 4 8 rb [3:0] $end
$var wire 4 9 ra [3:0] $end
$var wire 4 : op [3:0] $end
$var wire 16 ; mem_wdata [15:0] $end
$var wire 16 < mem_waddr [15:0] $end
$var wire 16 = mem_rdata1 [15:0] $end
$var wire 16 > mem_raddr1 [15:0] $end
$var wire 16 ? mem_raddr0 [15:0] $end
$var wire 16 @ instruction [15:0] $end
$var wire 4 A insID [3:0] $end
$var wire 1 B flush $end
$var wire 16 C current_word [15:0] $end
$var wire 1 D clk $end
$var wire 16 E calc_vtb [15:0] $end
$var wire 16 F calc_va [15:0] $end
$var reg 4 G d_insID [3:0] $end
$var reg 16 H d_pc [15:0] $end
$var reg 4 I d_ra [3:0] $end
$var reg 4 J d_rb [3:0] $end
$var reg 4 K d_rt [3:0] $end
$var reg 1 L d_v $end
$var reg 4 M e1_insID [3:0] $end
$var reg 16 N e1_pc [15:0] $end
$var reg 4 O e1_ra [3:0] $end
$var reg 4 P e1_rb [3:0] $end
$var reg 4 Q e1_rt [3:0] $end
$var reg 1 R e1_v $end
$var reg 16 S e1_va [15:0] $end
$var reg 16 T e1_vtb [15:0] $end
$var reg 1 U e2_branch $end
$var reg 4 V e2_insID [3:0] $end
$var reg 16 W e2_pc [15:0] $end
$var reg 4 X e2_ra [3:0] $end
$var reg 4 Y e2_rb [3:0] $end
$var reg 16 Z e2_result [15:0] $end
$var reg 4 [ e2_rt [3:0] $end
$var reg 1 \ e2_st_ld_hazard $end
$var reg 1 ] e2_v $end
$var reg 16 ^ e2_va [15:0] $end
$var reg 16 _ e2_vtb [15:0] $end
$var reg 1 ` f1_v $end
$var reg 16 a f2_pc [15:0] $end
$var reg 1 b f2_v $end
$var reg 1 c flushing $end
$var reg 1 d halt $end
$var reg 1 e mis_store $end
$var reg 1 f misaligned_pc_primed $end
$var reg 16 g pc [15:0] $end
$var reg 16 h prev_word [15:0] $end
$var reg 1 i stall $end
$var reg 16 j stall_instruction [15:0] $end
$var reg 16 k wb_pc [15:0] $end
$var reg 1 l wb_v $end
$var reg 16 m wb_va [15:0] $end
$var reg 16 n wb_vt [15:0] $end
$scope module c0 $end
$var wire 1 D clk $end
$var reg 1 o theClock $end
$upscope $end
$scope module ctr $end
$var wire 1 D clk $end
$var wire 1 d isHalt $end
$var reg 32 p count [31:0] $end
$upscope $end
$scope module mem $end
$var wire 1 D clk $end
$var wire 15 q raddr0_ [15:1] $end
$var wire 15 r raddr1_ [15:1] $end
$var wire 16 s rdata0_ [15:0] $end
$var wire 16 t rdata1_ [15:0] $end
$var wire 15 u waddr [15:1] $end
$var wire 16 v wdata [15:0] $end
$var wire 1 ' wen $end
$var reg 15 w raddr0 [15:1] $end
$var reg 15 x raddr1 [15:1] $end
$var reg 16 y rdata0 [15:0] $end
$var reg 16 z rdata1 [15:0] $end
$upscope $end
$scope module regs $end
$var wire 1 D clk $end
$var wire 4 { raddr0_ [3:0] $end
$var wire 4 | raddr1_ [3:0] $end
$var wire 16 } rdata0 [15:0] $end
$var wire 16 ~ rdata1 [15:0] $end
$var wire 4 !" waddr [3:0] $end
$var wire 16 "" wdata [15:0] $end
$var wire 1 , wen $end
$var reg 4 #" raddr0 [3:0] $end
$var reg 4 $" raddr1 [3:0] $end
$upscope $end
$upscope $end
$enddefinitions $end
#0
$dumpvars
bx $"
bx #"
bx ""
bx !"
bx ~
bx }
bx |
bx {
bx z
bx y
bx x
bx w
bx v
bx u
bx t
bx s
bx r
b0 q
b0 p
1o
b0 n
b0 m
0l
bx k
bx j
xi
bx h
b0 g
0f
0e
0d
0c
0b
bx a
1`
bx _
bx ^
0]
x\
bx [
bx Z
bx Y
bx X
bx W
bx V
xU
bx T
bx S
0R
bx Q
bx P
bx O
bx N
bx M
0L
bx K
bx J
bx I
bx H
bx G
bx F
bx E
1D
bx C
0B
bx A
bx @
b0 ?
bx >
bx =
bx <
bx ;
bx :
bx 9
bx 8
bx 7
bx 6
bx 5
bx 4
bx 3
bx 2
x1
00
0/
0.
0-
0,
bx +
0*
0)
0(
0'
0&
0%
0$
0#
0"
0!
$end
#500
0D
0o
#1000
b1 q
b10 ?
b1 p
b0 w
bx n
bx m
0\
0i
b0 a
1b
b10 g
1D
1o
#1500
0D
0o
#2000
b1 A
b11 7
b11 {
b0 6
b0 |
b10 q
b1000 :
b11 9
b0 8
b0 2
b100 ?
b1000001100000000 @
b0 H
b10 a
1L
b100 g
b1000001100000000 C
b1000001100000000 s
b1000001100000000 y
b1 w
b10 p
1D
1o
#2500
0D
0o
#3000
b0 7
b0 {
b0 9
b1010 8
b11 q
0$
b110 ?
b1000000010100000 @
0(
b11 p
b1000000010100000 C
b1000000010100000 s
b1000000010100000 y
b10 w
b0 $"
b11 #"
b10000011xxxxxxxx n
b0 K
b0 J
01
b11 I
b1 G
1f
b1000001100000000 h
b1000001100000000 j
b0 N
b10 H
b100 a
1R
b110 g
1D
1o
#3500
0D
0o
#4000
b0 r
b11 7
b11 {
b1 6
b1 |
b0 >
b100 q
b11 9
b10 8
b1 2
b1000 ?
b0 E
b1000001100100001 @
b10000000xxxxxxxx n
b0 Q
b0 P
b1010 J
b11 O
11
b0 I
b0 T
b1 M
b1000000010100000 h
b1000000010100000 j
b0 W
b10 N
b100 H
b110 a
1]
b1000 g
b0 #"
b1000001100100001 C
b1000001100100001 s
b1000001100100001 y
b11 w
b100 p
1D
1o
#4500
0D
0o
#5000
bx r
bx >
b0 7
b0 {
b10 6
b10 |
b0 9
b1 8
b10 2
b0xxxxxxxx ;
b0xxxxxxxx v
b101 q
1*
b1010 ?
b1000000000010010 @
b110000 3
b110000 ""
b0 F
b101 p
b1000000000010010 C
b1000000000010010 s
b1000000000010010 y
b0 x
b100 w
b1 $"
b11 #"
b10000011xxxxxxxx n
0U
b110000 Z
b0 +
b0 !"
b0 [
b1 K
b0 Y
b1010 P
b10 J
b11 X
b0 O
01
b11 I
b0 _
b0 S
b1 V
b1000001100100001 h
b1000001100100001 j
b0 k
b10 W
b100 N
b110 H
b1000 a
1l
b1010 g
1D
1o
#5500
0D
0o
#6000
b0 A
b0 r
b1 7
b1 {
b10 6
b10 |
b0 >
b110 q
b0 ;
b0 v
b0 :
b1 9
b10 8
b0 2
b0 u
b1100 ?
b1010 3
b1010 ""
bx E
b0 <
bx F
b100100000 @
b1000000000000000 n
b1010 Z
b1 Q
b10 K
b1010 Y
b10 P
b1 J
b0 X
b11 O
11
b0 I
bx T
b0 ^
bx S
b1000000000010010 h
b1000000000010010 j
b10 k
b100 W
b110 N
b1000 H
b1010 a
b1100 g
b10 $"
b0 #"
b1000001100000000 =
b1000001100000000 t
b1000001100000000 z
b100100000 C
b100100000 s
b100100000 y
bx x
b101 w
b110 p
1D
1o
#6500
0D
0o
#7000
b1 A
b0 7
b0 {
b0 6
b0 |
b1000 :
b0 9
b1010 8
b111 q
0*
1,
bx ;
bx v
bx u
b1110 ?
b1000000010100000 @
b110010 3
b110010 ""
bx <
b0 F
b111 p
bx =
bx t
bx z
b1000000010100000 C
b1000000010100000 s
b1000000010100000 y
b0 x
b110 w
b1 #"
b100000000 n
b0 m
b110010 Z
b1 +
b1 !"
b1 [
b10 Q
b0 K
b10 Y
b1 P
b10 J
b11 X
b0 O
01
b1 I
bx _
bx ^
b0 S
b0 G
b100100000 h
b100100000 j
b100 k
b110 W
b1000 N
b1010 H
b1100 a
b1110 g
1D
1o
#7500
0D
0o
#8000
b11 7
b11 {
b1 6
b1 |
b1000 q
b11 9
b10 8
b1 2
b1 E
b0 u
b10000 ?
b1 3
b1 ""
b0 <
b110010 F
b1000001100100001 @
b10000000xxxxxxxx n
bx m
b1 Z
b10 +
b10 !"
b10 [
b0 Q
b1 Y
b10 P
b1010 J
b0 X
b1 O
11
b0 I
b0 ^
b110010 S
b0 M
b1 G
b1000000010100000 h
b1000000010100000 j
b110 k
b1000 W
b1010 N
b1100 H
b1110 a
b10000 g
b0 $"
b0 #"
b1000001100000000 =
b1000001100000000 t
b1000001100000000 z
b1000001100100001 C
b1000001100100001 s
b1000001100100001 y
b111 w
b1000 p
1D
1o
#8500
0D
0o
#9000
b10 A
bx r
bx >
b0 7
b0 {
b1001 :
b0 9
b1 8
b1001 q
b0 E
1*
0,
b1 ;
b1 v
b11001 u
b10010 ?
b1001000000010001 @
b110001 3
b110001 ""
b110010 <
b0 F
b1001 p
b1001000000010001 C
b1001000000010001 s
b1001000000010001 y
b1000 w
b110010 4
b110010 ~
b1 $"
b11 #"
b10000011xxxxxxxx n
b0 m
b110001 Z
b0 +
b0 !"
b0 [
b1 K
b10 Y
b1010 P
b10 J
b1 X
b0 O
01
b11 I
b1 _
b0 T
b110010 ^
b0 S
b0 V
b1 M
b1000001100100001 h
b1000001100100001 j
b1000 k
b1010 W
b1100 N
b1110 H
b10000 a
b10010 g
1D
1o
#9500
0D
0o
#10000
b1 A
b0 r
b10 6
b10 |
b0 >
b1010 q
b1000 :
b0 8
b10 2
b0 ;
b0 v
b0 u
b10100 ?
b1010 3
b1010 ""
b110010 E
b0 <
bx F
b1000000000000010 @
b1001000000000000 n
b110010 m
b1010 Z
b1 Q
b1010 Y
b10 P
b1 J
b0 X
b11 O
11
b0 I
b0 _
b110010 T
b0 ^
bx S
b1 V
b10 G
b1001000000010001 h
b1001000000010001 j
b1010 k
b1100 W
b1110 N
b10000 H
b10010 a
b10100 g
b0 #"
b1000000000000010 C
b1000000000000010 s
b1000000000000010 y
bx x
b1001 w
b1010 p
1D
1o
#10500
0D
0o
#11000
b10 A
b1001 :
b1 8
b1011 q
0*
1,
b0xx00x0xxxxxxxx ;
b0xx00x0xxxxxxxx v
bx u
b10110 ?
b1001000000010010 @
b110010 3
b110010 ""
bx <
b0 F
b1011 p
bx =
bx t
bx z
b1001000000010010 C
b1001000000010010 s
b1001000000010010 y
b0 x
b1010 w
b1 4
b1 ~
b10 $"
b1000000000000000 n
b0 m
b110010 Z
b1 +
b1 !"
b1 [
b10 K
b10 Y
b1 P
b0 J
b11 X
b0 O
b110010 _
bx ^
b0 S
b10 M
b1 G
b1000000000000010 h
b1000000000000010 j
b1100 k
b1110 W
b10000 N
b10010 H
b10100 a
b10110 g
1D
1o
#11500
0D
0o
#12000
b0 A
b1 7
b1 {
b10 6
b10 |
b1100 q
b110010 ;
b110010 v
b0 :
b1 9
b10 8
b0 2
b1 E
b0 u
b11000 ?
b100110010 3
b100110010 ""
b0 <
b100100000 @
b1001000000000000 n
bx m
b100110010 Z
b10 Q
b1 Y
b0 P
b1 J
b0 X
b1 T
b0 ^
b10 V
b1 M
b10 G
b1001000000010010 h
b1001000000010010 j
b1110 k
b10000 W
b10010 N
b10100 H
b10110 a
b11000 g
b1000001100000000 =
b1000001100000000 t
b1000001100000000 z
b100100000 C
b100100000 s
b100100000 y
b1011 w
b1100 p
1D
1o
#12500
0D
0o
#13000
b1 A
b0 7
b0 {
b0 6
b0 |
b10011001 r
b1000 :
b0 9
b1010 8
b100110010 >
1,
b1101 q
b0 E
b1 ;
b1 v
b11010 ?
b1000000010100000 @
b0 3
b0 ""
b1101 p
b1000000010100000 C
b1000000010100000 s
b1000000010100000 y
b1100 w
b100110010 5
b100110010 }
b1 #"
b100000000 n
b0 m
b0 Z
b10 +
b10 !"
b10 [
b0 K
b0 Y
b1 P
b10 J
01
b1 I
b1 _
b1 V
b10 M
b0 G
b100100000 h
b100100000 j
b10000 k
b10010 W
b10100 N
b10110 H
b11000 a
b11010 g
1D
1o
#13500
0D
0o
#14000
b0 r
b100 7
b100 {
b1 6
b1 |
b1110 q
b0 >
b100 9
b0 8
b1 2
b100000000 E
b0 ;
b0 v
b11100 ?
b100000000 3
b100000000 ""
b100110010 F
b1000010000000001 @
b1000000000000000 n
b100000000 Z
b0 Q
b1 Y
b10 P
b1010 J
b1 O
11
b0 I
b0 _
b0 T
b100110010 S
b10 V
b0 M
b1 G
b1000000010100000 h
b1000000010100000 j
b10010 k
b10100 W
b10110 N
b11000 H
b11010 a
b11100 g
bx 4
bx ~
b0 $"
bx 5
bx }
b0 #"
b1000010000000001 C
b1000010000000001 s
b1000010000000001 y
b10011001 x
b1101 w
b1110 p
1D
1o
#14500
0D
0o
#15000
bx r
bx >
b11 7
b11 {
b10 6
b10 |
1*
b11 9
b10 2
b1111 q
b0 E
0,
b100000000 ;
b100000000 v
b10011001 u
b11110 ?
b1000001100000010 @
b110010 3
b110010 ""
b100110010 <
b0 F
b1111 p
bx =
bx t
bx z
b1000001100000010 C
b1000001100000010 s
b1000001100000010 y
b0 x
b1110 w
b100110010 4
b100110010 ~
b1 $"
b100 #"
b1000010000000000 n
b110010 Z
b0 +
b0 !"
b0 [
b1 K
b10 Y
b1010 P
b0 J
b1 X
b0 O
01
b100 I
b100000000 _
b100110010 ^
b0 S
b0 V
b1 M
b1000010000000001 h
b1000010000000001 j
b10100 k
b10110 W
b11000 N
b11010 H
b11100 a
b11110 g
1D
1o
#15500
0D
0o
#16000
b10 A
b1000 7
b1000 {
b10000 q
b1001 :
b1000 9
b11 8
b0 ;
b0 v
b0 u
b100000 ?
b1010 3
b1010 ""
b100110010 E
b0 <
bx F
b1001100000110010 @
b1000001100000001 n
b100110010 m
b1010 Z
b1 Q
b10 K
b1010 Y
b0 P
b0 X
b100 O
b11 I
b0 _
b100110010 T
b0 ^
bx S
b1 V
b1000001100000010 h
b1000001100000010 j
b10110 k
b11000 W
b11010 N
b11100 H
b11110 a
b100000 g
b100000000 4
b100000000 ~
b10 $"
b11 #"
b1000001100000000 =
b1000001100000000 t
b1000001100000000 z
b1001100000110010 C
b1001100000110010 s
b1001100000110010 y
bx x
b1111 w
b10000 p
1D
1o
#16500
0D
0o
#17000
b1 A
b0 7
b0 {
b1010 6
b1010 |
b1000 :
b0 9
b0 8
b1010 2
b10001 q
0*
1,
b0xx00xxxxxxxxxx ;
b0xx00xxxxxxxxxx v
bx u
b100010 ?
b1000000000001010 @
b1000000 3
b1000000 ""
b100000000 E
bx <
b10001 p
bx =
bx t
bx z
b1000000000001010 C
b1000000000001010 s
b1000000000001010 y
b10000 w
b1000 #"
b1001100000000000 n
b0 m
b1000000 Z
b1 +
b1 !"
b1 [
b10 Q
b0 Y
b11 J
b100 X
b11 O
b1000 I
b100110010 _
b100000000 T
bx ^
b10 G
b1001100000110010 h
b1001100000110010 j
b11000 k
b11010 W
b11100 N
b11110 H
b100000 a
b100010 g
1D
1o
#17500
0D
0o
#18000
b0 r
b0 >
b0xxxxxxxxx ;
b0xxxxxxxxx v
b10010 q
b110000 E
b100100 ?
b110000 3
b110000 ""
b1000000000000001 n
bx m
b110000 Z
b10 +
b10 !"
b10 [
b1010 K
b11 P
b0 J
b11 X
b1000 O
11
b0 I
b100000000 _
b10 M
b1 G
b1000000000001010 h
b1000000000001010 j
b11010 k
b11100 W
b11110 N
b100000 H
b100010 a
b100100 g
bx 4
bx ~
b1010 $"
b0 #"
b10001 w
b10010 p
1D
1o
#18500
0D
0o
#19000
b10011 q
bx E
b0xx0000xxxxxxxx ;
b0xx0000xxxxxxxx v
b100110 ?
b1000001100110000 3
b1000001100110000 ""
b0 F
b10011 p
b0 x
b10010 w
b1000001100110000 Z
b1010 Q
b11 Y
b0 P
b1000 X
b0 O
b110000 _
bx T
b0 S
b10 V
b1 M
b11100 k
b11110 W
b100000 N
b100010 H
b100100 a
b100110 g
1D
1o
#19500
0D
0o
#20000
1,
b10100 q
b0 E
bx ;
bx v
b0 u
b101000 ?
b0 3
b0 ""
b0 <
b1000000000000000 n
b0 Z
b1010 +
b1010 !"
b1010 [
b0 Y
b0 X
bx _
b0 ^
b1 V
b11110 k
b100000 W
b100010 N
b100100 H
b100110 a
b101000 g
b1000001100000000 =
b1000001100000000 t
b1000001100000000 z
b10011 w
b10100 p
1D
1o
#20500
0D
0o
#21000
b10101 q
b0 ;
b0 v
b101010 ?
b10101 p
b10100 w
b0 4
b0 ~
b10000000xxxxxxxx n
b0 m
b0 _
b0 T
b100000 k
b100010 W
b100100 N
b100110 H
b101000 a
b101010 g
1D
1o
#21500
0D
0o
#22000
b10110 q
b101100 ?
b1000000000000000 n
b100010 k
b100100 W
b100110 N
b101000 H
b101010 a
b101100 g
b10101 w
b10110 p
1D
1o
#22500
0D
0o
#23000
b10111 q
b101110 ?
b10111 p
b10110 w
b100100 k
b100110 W
b101000 N
b101010 H
b101100 a
b101110 g
1D
1o
#23500
0D
0o
#24000
b11000 q
b110000 ?
b100110 k
b101000 W
b101010 N
b101100 H
b101110 a
b110000 g
b10111 w
b11000 p
1D
1o
#24500
0D
0o
#25000
b1000 A
b1 7
b1 {
b10 6
b10 |
b1111 :
b1 9
b1 8
b10 2
b11001 q
b110010 ?
b1111000100010010 @
b11001 p
b1111000100010010 C
b1111000100010010 s
b1111000100010010 y
b11000 w
b101000 k
b101010 W
b101100 N
b101110 H
b110000 a
b110010 g
1D
1o
#25500
0D
0o
#26000
b1 A
b100000 r
b0 7
b0 {
b1010 6
b1010 |
b1000000 >
b11010 q
b1000 :
b0 9
b0 8
b1010 2
b110100 ?
b1000000000001010 @
b1111000100000000 n
b10 K
b1 J
01
b1 I
b1000 G
b1111000100010010 h
b1111000100010010 j
b101010 k
b101100 W
b101110 N
b110000 H
b110010 a
b110100 g
b1000001100110000 4
b1000001100110000 ~
b10 $"
b1000000 5
b1000000 }
b1 #"
b1000000000001010 C
b1000000000001010 s
b1000000000001010 y
b11001 w
b11010 p
1D
1o
#26500
0D
0o
#27000
b0 r
b1000001100110000 E
b0 >
b11011 q
b110110 ?
b1000000 F
b11011 p
b100000 x
b11010 w
b0 4
b0 ~
b1010 $"
bx 5
bx }
b0 #"
b1000000000000000 n
b10 Q
b1010 K
b1 P
b0 J
b1 O
11
b0 I
b1000001100110000 T
b1000000 S
b1000 M
b1 G
b1000000000001010 h
b1000000000001010 j
b101100 k
b101110 W
b110000 N
b110010 H
b110100 a
b110110 g
1D
1o
#27500
0D
0o
#28000
0,
b11100 q
b1000001100110000 ;
b1000001100110000 v
b100000 u
1'
b111000 ?
b1000001100110000 3
b1000001100110000 ""
b0 E
b1000000 <
b0 F
b1000001100110000 Z
b10 +
b10 !"
b10 [
b1010 Q
b1 Y
b0 P
b1 X
b0 O
b1000001100110000 _
b0 T
b1000000 ^
b0 S
b1000 V
b1 M
b101110 k
b110000 W
b110010 N
b110100 H
b110110 a
b111000 g
b1111111111111111 =
b1111111111111111 t
b1111111111111111 z
b0 x
b11011 w
b11100 p
1D
1o
#28500
0D
0o
#29000
1,
b11101 q
b0 ;
b0 v
b0 u
0'
b111010 ?
b0 3
b0 ""
b0 <
b11101 p
b1000001100000000 =
b1000001100000000 t
b1000001100000000 z
b11100 w
b1000000010000011 n
b1000000 m
b0 Z
b1010 +
b1010 !"
b1010 [
b0 Y
b0 X
b0 _
b0 ^
b1 V
b110000 k
b110010 W
b110100 N
b110110 H
b111000 a
b111010 g
1D
1o
#29500
0D
0o
#30000
b11110 q
b111100 ?
b1000000000000000 n
b0 m
b110010 k
b110100 W
b110110 N
b111000 H
b111010 a
b111100 g
b11101 w
b11110 p
1D
1o
#30500
0D
0o
#31000
b11111 q
b111110 ?
b11111 p
b11110 w
b110100 k
b110110 W
b111000 N
b111010 H
b111100 a
b111110 g
1D
1o
#31500
0D
0o
#32000
b100000 q
b1000000 ?
b110110 k
b111000 W
b111010 N
b111100 H
b111110 a
b1000000 g
b11111 w
b100000 p
1D
1o
#32500
0D
0o
#33000
b100001 q
b1000010 ?
b100001 p
b100000 w
b111000 k
b111010 W
b111100 N
b111110 H
b1000000 a
b1000010 g
1D
1o
#33500
0D
0o
#34000
b11 7
b11 {
b0 6
b0 |
b100010 q
b11 9
b11 8
b0 2
b1000100 ?
b1000001100110000 @
b111010 k
b111100 W
b111110 N
b1000000 H
b1000010 a
b1000100 g
b1000001100110000 C
b1000001100110000 s
b1000001100110000 y
b100001 w
b100010 p
1D
1o
#34500
0D
0o
#35000
b0 7
b0 {
bx r
b0 9
b1010 8
bx >
b100011 q
b1000110 ?
b1000000010100000 @
b100011 p
b1000000010100000 C
b1000000010100000 s
b1000000010100000 y
b100010 w
bx 4
bx ~
b0 $"
b11 #"
b1000001100000000 n
b0 K
b11 J
01
b11 I
b1000001100110000 h
b1000001100110000 j
b111100 k
b111110 W
b1000000 N
b1000010 H
b1000100 a
b1000110 g
1D
1o
#35500
0D
0o
#36000
b0 r
b1001 7
b1001 {
b1 6
b1 |
b0 >
b100100 q
b1001 9
b110 8
b1 2
b1001000 ?
bx F
b1000100101100001 @
b1000000000000000 n
b0 Q
b11 P
b1010 J
b11 O
11
b0 I
bx S
b1000000010100000 h
b1000000010100000 j
b111110 k
b1000000 W
b1000010 N
b1000100 H
b1000110 a
b1001000 g
b0 #"
b1000100101100001 C
b1000100101100001 s
b1000100101100001 y
bx x
b100011 w
b100100 p
1D
1o
#36500
0D
0o
#37000
bx r
bx >
b11 7
b11 {
b10 6
b10 |
b11 9
b100 8
b10 2
b0xxxxxxxx ;
b0xxxxxxxx v
b100101 q
1*
0,
b0 E
bx u
b1001010 ?
b1000001101000010 @
b110011 3
b110011 ""
bx <
b0 F
b100101 p
bx =
bx t
bx z
b1000001101000010 C
b1000001101000010 s
b1000001101000010 y
b0 x
b100100 w
b1000000 4
b1000000 ~
b1 $"
b1001 #"
b1000100100000000 n
b110011 Z
b0 +
b0 !"
b0 [
b1 K
b11 Y
b1010 P
b110 J
b11 X
b0 O
01
b1001 I
bx ^
b0 S
b1000100101100001 h
b1000100101100001 j
b1000000 k
b1000010 W
b1000100 N
b1000110 H
b1001000 a
b1001010 g
1D
1o
#37500
0D
0o
#38000
b0 7
b0 {
b1010 6
b1010 |
b100110 q
b0 ;
b0 v
b0 9
b0 8
b1010 2
b0 u
b1001100 ?
b1010 3
b1010 ""
b1000000 E
b0 <
bx F
b1000000000001010 @
b1000001100000000 n
bx m
b1010 Z
b1 Q
b10 K
b1010 Y
b110 P
b100 J
b0 X
b1001 O
b11 I
b1000000 T
b0 ^
bx S
b1000001101000010 h
b1000001101000010 j
b1000010 k
b1000100 W
b1000110 N
b1001000 H
b1001010 a
b1001100 g
b1000001100110000 4
b1000001100110000 ~
b10 $"
b11 #"
b1000001100000000 =
b1000001100000000 t
b1000001100000000 z
b1000000000001010 C
b1000000000001010 s
b1000000000001010 y
bx x
b100101 w
b100110 p
1D
1o
#38500
0D
0o
#39000
b0 r
b0 >
b100111 q
0*
1,
b0x000000xxxxxxxx ;
b0x000000xxxxxxxx v
bx u
b1001110 ?
b1111111110010110 3
b1111111110010110 ""
b1000001100110000 E
bx <
b100111 p
bx =
bx t
bx z
b100110 w
b0 4
b0 ~
b1010 $"
b0 #"
b1000000000000000 n
b0 m
b1111111110010110 Z
b1 +
b1 !"
b1 [
b10 Q
b1010 K
b110 Y
b100 P
b0 J
b1001 X
b11 O
11
b0 I
b1000000 _
b1000001100110000 T
bx ^
b1000000000001010 h
b1000000000001010 j
b1000100 k
b1000110 W
b1001000 N
b1001010 H
b1001100 a
b1001110 g
1D
1o
#39500
0D
0o
#40000
b101000 q
bx0xx00xxxxxxxxxx ;
bx0xx00xxxxxxxxxx v
b1010000 ?
b110100 3
b110100 ""
b0 E
b0 F
bx m
b110100 Z
b10 +
b10 !"
b10 [
b1010 Q
b100 Y
b0 P
b11 X
b0 O
b1000001100110000 _
b0 T
b0 S
b1000110 k
b1001000 W
b1001010 N
b1001100 H
b1001110 a
b1010000 g
b0 x
b100111 w
b101000 p
1D
1o
#40500
0D
0o
#41000
b101001 q
b0 ;
b0 v
b0 u
b1010010 ?
b0 3
b0 ""
b0 <
b101001 p
b1000001100000000 =
b1000001100000000 t
b1000001100000000 z
b101000 w
b1000000010000011 n
b0 Z
b1010 +
b1010 !"
b1010 [
b0 Y
b0 X
b0 _
b0 ^
b1001000 k
b1001010 W
b1001100 N
b1001110 H
b1010000 a
b1010010 g
1D
1o
#41500
0D
0o
#42000
b101010 q
b1010100 ?
b1000000000000000 n
b0 m
b1001010 k
b1001100 W
b1001110 N
b1010000 H
b1010010 a
b1010100 g
b101001 w
b101010 p
1D
1o
#42500
0D
0o
#43000
b101011 q
b1010110 ?
b101011 p
b101010 w
b1001100 k
b1001110 W
b1010000 N
b1010010 H
b1010100 a
b1010110 g
1D
1o
#43500
0D
0o
#44000
b101100 q
b1011000 ?
b1001110 k
b1010000 W
b1010010 N
b1010100 H
b1010110 a
b1011000 g
b101011 w
b101100 p
1D
1o
#44500
0D
0o
#45000
b101101 q
b1011010 ?
b101101 p
b101100 w
b1010000 k
b1010010 W
b1010100 N
b1010110 H
b1011000 a
b1011010 g
1D
1o
#45500
0D
0o
#46000
b1000 A
b1 7
b1 {
b10 6
b10 |
b101110 q
b1111 :
b1 9
b1 8
b10 2
b1011100 ?
b1111000100010010 @
b1010010 k
b1010100 W
b1010110 N
b1011000 H
b1011010 a
b1011100 g
b1111000100010010 C
b1111000100010010 s
b1111000100010010 y
b101101 w
b101110 p
1D
1o
#46500
0D
0o
#47000
b1 A
b0 7
b0 {
b1010 6
b1010 |
b111111111001011 r
b1000 :
b0 9
b0 8
b1010 2
b1111111110010110 >
b101111 q
b1011110 ?
b1000000000001010 @
b101111 p
b1000000000001010 C
b1000000000001010 s
b1000000000001010 y
b101110 w
b110100 4
b110100 ~
b10 $"
b1111111110010110 5
b1111111110010110 }
b1 #"
b1111000100000000 n
b10 K
b1 J
01
b1 I
b1000 G
b1111000100010010 h
b1111000100010010 j
b1010100 k
b1010110 W
b1011000 N
b1011010 H
b1011100 a
b1011110 g
1D
1o
#47500
0D
0o
#48000
b0 r
b110100 E
b110000 q
b0 >
b1100000 ?
b1111111110010110 F
b1000000000000000 n
b10 Q
b1010 K
b1 P
b0 J
b1 O
11
b0 I
b110100 T
b1111111110010110 S
b1000 M
b1 G
b1000000000001010 h
b1000000000001010 j
b1010110 k
b1011000 W
b1011010 N
b1011100 H
b1011110 a
b1100000 g
b0 4
b0 ~
b1010 $"
bx 5
bx }
b0 #"
b111111111001011 x
b101111 w
b110000 p
1D
1o
#48500
0D
0o
#49000
0,
b110001 q
b110100 ;
b110100 v
b111111111001011 u
1'
b1100010 ?
b110100 3
b110100 ""
b0 E
b1111111110010110 <
b0 F
b110001 p
bx =
bx t
bx z
b0 x
b110000 w
b110100 Z
b10 +
b10 !"
b10 [
b1010 Q
b1 Y
b0 P
b1 X
b0 O
b110100 _
b0 T
b1111111110010110 ^
b0 S
b1000 V
b1 M
b1011000 k
b1011010 W
b1011100 N
b1011110 H
b1100000 a
b1100010 g
1D
1o
#49500
0D
0o
#50000
1,
b110010 q
b0 ;
b0 v
b0 u
0'
b1100100 ?
b0 3
b0 ""
b0 <
b1111111110010110 m
b0 Z
b1010 +
b1010 !"
b1010 [
b0 Y
b0 X
b0 _
b0 ^
b1 V
b1011010 k
b1011100 W
b1011110 N
b1100000 H
b1100010 a
b1100100 g
b1000001100000000 =
b1000001100000000 t
b1000001100000000 z
b110001 w
b110010 p
1D
1o
#50500
0D
0o
#51000
b110011 q
b1100110 ?
b110011 p
b110010 w
b0 m
b1011100 k
b1011110 W
b1100000 N
b1100010 H
b1100100 a
b1100110 g
1D
1o
#51500
0D
0o
#52000
b110100 q
b1101000 ?
b1011110 k
b1100000 W
b1100010 N
b1100100 H
b1100110 a
b1101000 g
b110011 w
b110100 p
1D
1o
#52500
0D
0o
#53000
b110101 q
b1101010 ?
b110101 p
b110100 w
b1100000 k
b1100010 W
b1100100 N
b1100110 H
b1101000 a
b1101010 g
1D
1o
#53500
0D
0o
#54000
b110110 q
b1101100 ?
b1100010 k
b1100100 W
b1100110 N
b1101000 H
b1101010 a
b1101100 g
b110101 w
b110110 p
1D
1o
#54500
0D
0o
#55000
b111 A
b1 7
b1 {
b0 6
b0 |
b1111 :
b1 9
b0 2
b110111 q
b1101110 ?
b1111000100000000 @
b110111 p
b1111000100000000 C
b1111000100000000 s
b1111000100000000 y
b110110 w
b1100100 k
b1100110 W
b1101000 N
b1101010 H
b1101100 a
b1101110 g
1D
1o
#55500
0D
0o
#56000
b1111 A
b111111111001011 r
b1111 7
b1111 {
b1111 6
b1111 |
b1111111110010110 >
b111000 q
b1111 9
b1111 8
b1111 2
b1110000 ?
b1111111111111111 @
b1111000100000000 n
b0 K
01
b1 I
b111 G
b1111000100000000 h
b1111000100000000 j
b1100110 k
b1101000 W
b1101010 N
b1101100 H
b1101110 a
b1110000 g
bx 4
bx ~
b0 $"
b1111111110010110 5
b1111111110010110 }
b1 #"
b1111111111111111 C
b1111111111111111 s
b1111111111111111 y
b110111 w
b111000 p
1D
1o
#56500
0D
0o
