tests/playground.vcd
$date
	Wed May  1 17:58:48 2024
$end
$version
	Icarus Verilog
$end
$timescale
	1ps
$end
$scope module main $end
$var wire 1 ! d_stall $end
$var wire 1 " e1_stall $end
$var wire 1 # e2_stall $end
$var wire 1 $ f1_stall $end
$var wire 1 % f2_stall $end
$var wire 1 & ld_ld_hazard $end
$var wire 1 ' mem_wen $end
$var wire 1 ( mis_load $end
$var wire 1 ) mis_store_wire $end
$var wire 1 * print $end
$var wire 4 + reg_waddr [3:0] $end
$var wire 1 , reg_wen $end
$var wire 1 - self_modify_d $end
$var wire 1 . self_modify_e1 $end
$var wire 1 / self_modify_e2 $end
$var wire 1 0 self_modify_f2 $end
$var wire 1 1 temp $end
$var wire 4 2 rt [3:0] $end
$var wire 16 3 reg_wdata [15:0] $end
$var wire 16 4 reg_rdata1 [15:0] $end
$var wire 16 5 reg_rdata0 [15:0] $end
$var wire 4 6 reg_raddr1 [3:0] $end
$var wire 4 7 reg_raddr0 [3:0] $end
$var wire 4 8 rb [3:0] $end
$var wire 4 9 ra [3:0] $end
$var wire 4 : op [3:0] $end
$var wire 16 ; mem_wdata [15:0] $end
$var wire 16 < mem_waddr [15:0] $end
$var wire 16 = mem_rdata1 [15:0] $end
$var wire 16 > mem_raddr1 [15:0] $end
$var wire 16 ? mem_raddr0 [15:0] $end
$var wire 16 @ instruction [15:0] $end
$var wire 4 A insID [3:0] $end
$var wire 1 B flush $end
$var wire 16 C current_word [15:0] $end
$var wire 1 D clk $end
$var wire 16 E calc_vtb [15:0] $end
$var wire 16 F calc_va [15:0] $end
$var reg 4 G d_insID [3:0] $end
$var reg 16 H d_pc [15:0] $end
$var reg 4 I d_ra [3:0] $end
$var reg 4 J d_rb [3:0] $end
$var reg 4 K d_rt [3:0] $end
$var reg 1 L d_v $end
$var reg 4 M e1_insID [3:0] $end
$var reg 16 N e1_pc [15:0] $end
$var reg 4 O e1_ra [3:0] $end
$var reg 4 P e1_rb [3:0] $end
$var reg 4 Q e1_rt [3:0] $end
$var reg 1 R e1_v $end
$var reg 16 S e1_va [15:0] $end
$var reg 16 T e1_vtb [15:0] $end
$var reg 1 U e2_branch $end
$var reg 4 V e2_insID [3:0] $end
$var reg 16 W e2_pc [15:0] $end
$var reg 4 X e2_ra [3:0] $end
$var reg 4 Y e2_rb [3:0] $end
$var reg 16 Z e2_result [15:0] $end
$var reg 4 [ e2_rt [3:0] $end
$var reg 1 \ e2_st_ld_hazard $end
$var reg 1 ] e2_v $end
$var reg 16 ^ e2_va [15:0] $end
$var reg 16 _ e2_vtb [15:0] $end
$var reg 1 ` f1_v $end
$var reg 16 a f2_pc [15:0] $end
$var reg 1 b f2_v $end
$var reg 1 c flushing $end
$var reg 1 d halt $end
$var reg 1 e mis_store $end
$var reg 1 f misaligned_pc_primed $end
$var reg 16 g pc [15:0] $end
$var reg 16 h prev_word [15:0] $end
$var reg 1 i stall $end
$var reg 16 j stall_instruction [15:0] $end
$var reg 16 k wb_pc [15:0] $end
$var reg 1 l wb_v $end
$var reg 16 m wb_va [15:0] $end
$var reg 16 n wb_vt [15:0] $end
$scope module c0 $end
$var wire 1 D clk $end
$var reg 1 o theClock $end
$upscope $end
$scope module ctr $end
$var wire 1 D clk $end
$var wire 1 d isHalt $end
$var reg 32 p count [31:0] $end
$upscope $end
$scope module mem $end
$var wire 1 D clk $end
$var wire 15 q raddr0_ [15:1] $end
$var wire 15 r raddr1_ [15:1] $end
$var wire 16 s rdata0_ [15:0] $end
$var wire 16 t rdata1_ [15:0] $end
$var wire 15 u waddr [15:1] $end
$var wire 16 v wdata [15:0] $end
$var wire 1 ' wen $end
$var reg 15 w raddr0 [15:1] $end
$var reg 15 x raddr1 [15:1] $end
$var reg 16 y rdata0 [15:0] $end
$var reg 16 z rdata1 [15:0] $end
$upscope $end
$scope module regs $end
$var wire 1 D clk $end
$var wire 4 { raddr0_ [3:0] $end
$var wire 4 | raddr1_ [3:0] $end
$var wire 16 } rdata0 [15:0] $end
$var wire 16 ~ rdata1 [15:0] $end
$var wire 4 !" waddr [3:0] $end
$var wire 16 "" wdata [15:0] $end
$var wire 1 , wen $end
$var reg 4 #" raddr0 [3:0] $end
$var reg 4 $" raddr1 [3:0] $end
$upscope $end
$upscope $end
$enddefinitions $end
#0
$dumpvars
bx $"
bx #"
bx ""
bx !"
bx ~
bx }
bx |
bx {
bx z
bx y
bx x
bx w
bx v
bx u
bx t
bx s
bx r
b0 q
b0 p
1o
b0 n
b0 m
0l
bx k
bx j
xi
bx h
b0 g
0f
0e
0d
0c
0b
bx a
1`
bx _
bx ^
0]
x\
bx [
bx Z
bx Y
bx X
bx W
bx V
xU
bx T
bx S
0R
bx Q
bx P
bx O
bx N
bx M
0L
bx K
bx J
bx I
bx H
bx G
bx F
bx E
1D
bx C
0B
bx A
bx @
b0 ?
bx >
bx =
bx <
bx ;
bx :
bx 9
bx 8
bx 7
bx 6
bx 5
bx 4
bx 3
bx 2
x1
00
0/
0.
0-
0,
bx +
0*
0)
0(
0'
0&
0%
0$
0#
0"
0!
$end
#500
0D
0o
#1000
b1 q
b10 ?
b1 p
b0 w
bx n
bx m
0\
0i
b0 a
1b
b10 g
1D
1o
#1500
0D
0o
#2000
b1 A
b1111 7
b1111 {
b1010 6
b1010 |
b10 q
b1000 :
b1111 9
b1110 8
b1010 2
b100 ?
b1000111111101010 @
b0 H
b10 a
1L
b100 g
b1000111111101010 C
b1000111111101010 s
b1000111111101010 y
b1 w
b10 p
1D
1o
#2500
0D
0o
#3000
b10 7
b10 {
b1011 6
b1011 |
b10 9
b1 8
b1011 2
b11 q
0$
b110 ?
b1000001000011011 @
0(
b11 p
b1000001000011011 C
b1000001000011011 s
b1000001000011011 y
b10 w
b1010 $"
b1111 #"
b10001111xxxxxxxx n
b1010 K
b1110 J
01
b1111 I
b1 G
1f
b1000111111101010 h
b1000111111101010 j
b0 N
b10 H
b100 a
1R
b110 g
1D
1o
#3500
0D
0o
#4000
b0 7
b0 {
b1100 6
b1100 |
b100 q
b0 9
b1100 8
b1100 2
b1000 ?
b1000000011001100 @
b10000010xxxxxxxx n
b1010 Q
b1011 K
b1110 P
b1 J
b1111 O
b10 I
b1 M
b1000001000011011 h
b1000001000011011 j
b0 W
b10 N
b100 H
b110 a
1]
b1000 g
b1011 $"
b10 #"
b1000000011001100 C
b1000000011001100 s
b1000000011001100 y
b11 w
b100 p
1D
1o
#4500
0D
0o
#5000
b1 7
b1 {
b1101 6
b1101 |
b0 r
b1 9
b1000 8
b1101 2
b0 >
b101 q
1,
b1010 ?
b1000000110001101 @
b1111111111111110 3
b1111111111111110 ""
b101 p
b1000000110001101 C
b1000000110001101 s
b1000000110001101 y
b100 w
b1100 $"
b0 #"
b10000000xxxxxxxx n
0U
b1111111111111110 Z
b1010 +
b1010 !"
b1010 [
b1011 Q
b1100 K
b1110 Y
b1 P
b1100 J
b1111 X
b10 O
11
b0 I
b1 V
b1000000011001100 h
b1000000011001100 j
b0 k
b10 W
b100 N
b110 H
b1000 a
1l
b1010 g
1D
1o
#5500
0D
0o
#6000
bx r
b1111 7
b1111 {
b1111 6
b1111 |
bx >
b110 q
b1111 9
b1111 8
b1111 2
b1100 ?
b100001 3
b100001 ""
b0 F
b1000111111111111 @
b10000001xxxxxxxx n
b100001 Z
b1011 +
b1011 !"
b1011 [
b1100 Q
b1101 K
b1 Y
b1100 P
b1000 J
b10 X
b0 O
01
b1 I
b0 S
b1000000110001101 h
b1000000110001101 j
b10 k
b100 W
b110 N
b1000 H
b1010 a
b1100 g
b1101 $"
b1 #"
b1000111111111111 C
b1000111111111111 s
b1000111111111111 y
b0 x
b101 w
b110 p
1D
1o
#6500
0D
0o
#7000
b10 A
b0 7
b0 {
b1001 :
b0 9
b0 8
b111 q
b0 u
b1110 ?
b1001000000001111 @
b1100 3
b1100 ""
b0 <
bx F
b111 p
b1000111111101010 =
b1000111111101010 t
b1000111111101010 z
b1001000000001111 C
b1001000000001111 s
b1001000000001111 y
bx x
b110 w
b1111 $"
b1111 #"
b10001111xxxxxxxx n
b1100 Z
b1100 +
b1100 !"
b1100 [
b1101 Q
b1111 K
b1100 Y
b1000 P
b1111 J
b0 X
b1 O
b1111 I
b0 ^
bx S
b1000111111111111 h
b1000111111111111 j
b100 k
b110 W
b1000 N
b1010 H
b1100 a
b1110 g
1D
1o
#7500
0D
0o
#8000
b111 A
b0 r
b1011 7
b1011 {
b1110 6
b1110 |
b0 >
b1000 q
b1111 :
b1011 9
b1110 2
bx u
b10000 ?
b11000 3
b11000 ""
bx <
b1111101100001110 @
b10010000xxxxxxxx n
b0 m
b11000 Z
b1101 +
b1101 !"
b1101 [
b1111 Q
b1000 Y
b1111 P
b0 J
b1 X
b1111 O
11
b0 I
bx ^
b10 G
b1001000000001111 h
b1001000000001111 j
b110 k
b1000 W
b1010 N
b1100 H
b1110 a
b10000 g
b0 #"
bx =
bx t
bx z
b1111101100001110 C
b1111101100001110 s
b1111101100001110 y
b111 w
b1000 p
1D
1o
#8500
0D
0o
#9000
1$
1(
b0 A
b1110 7
b1110 {
b1111 6
b1111 |
b10000 r
b0 :
b1110 9
b1111 8
b1 2
b100001 >
b10001 q
b1111111111111111 E
b100010 ?
b111011110001 @
b1111111111111111 3
b1111111111111111 ""
b0 F
b1001 p
b111011110001 C
b111011110001 s
b111011110001 y
b0 x
b1000 w
b1110 $"
b100001 5
b100001 }
b1011 #"
b11111011xxxxxxxx n
bx m
b1111111111111111 Z
b1111 +
b1111 !"
b1111 [
b1110 K
b1111 Y
b0 P
b1111 X
b0 O
01
b1011 I
b0 S
b10 M
b111 G
b1111101100001110 h
b1111101100001110 j
b1000 k
b1010 W
b1100 N
b1110 H
b10000 a
b10010 g
1D
1o
#9500
0D
0o
#10000
b1001 q
b101 A
0$
b0 r
b10010 ?
b1 7
b1 {
b1101 6
b1101 |
0(
b0 >
b1110 :
b1 9
b10 8
b1101 2
bx E
b1111111111111111 ;
b1111111111111111 v
b0 u
b11111111 3
b11111111 ""
b0 <
b100001 F
b1110000100101101 @
b1110xxxxxxxx n
b11111111 Z
b1110 Q
b1 K
b0 Y
b1111 J
b0 X
b1011 O
b1110 I
b1111111111111111 _
b0 ^
b100001 S
b10 V
b111 M
b0 G
b111011110001 h
b111011110001 j
b1010 k
b1100 W
b1110 N
b10000 H
b10010 a
0b
b1111111111111111 4
b1111111111111111 ~
b1111 $"
bx 5
bx }
b1110 #"
b1000111111101010 =
b1000111111101010 t
b1000111111101010 z
b1110000100101101 C
b1110000100101101 s
b1110000100101101 y
b10000 x
b10001 w
b1010 p
1D
1o
#10500
0D
0o
#11000
b1111 A
b0 r
b0 >
b101 7
b101 {
b1 6
b1 |
b110 :
b101 9
b0 8
b1 2
b1010 q
bx00000000 ;
bx00000000 v
b10000 u
b10100 ?
b110010100000001 @
b101101000 3
b101101000 ""
b11111111 E
b100001 <
b101101000 F
b1011 p
b110100000000000 =
b110100000000000 t
b110100000000000 z
b110010100000001 C
b110010100000001 s
b110010100000001 y
b0 x
b1001 w
b11000 4
b11000 ~
b1101 $"
b1 #"
b1110000111111111 n
b0 m
b1111111111111111 Z
b1110 +
b1110 !"
b1110 [
b1 Q
b1101 K
b1111 P
b10 J
b1011 X
b1110 O
b1 I
bx _
b11111111 T
b100001 ^
bx S
b111 V
b0 M
b101 G
b1110000100101101 h
b1110000100101101 j
b1100 k
b1110 W
b10000 N
b10010 H
0L
1b
b10100 g
1D
1o
#11500
0D
0o
#12000
bx r
bx >
b0 A
b1110 7
b1110 {
b0 6
b0 |
b1101001 F
b1011 q
b11111111 ;
b11111111 v
b0 :
b1110 9
b0 2
b10110100 u
1,
b1101001 3
b1101001 ""
b10110 ?
b11000 E
b101101000 <
b111000000000 @
b1100101xxxxxxxx n
b100001 m
b1101001 Z
b1 +
b1 !"
b1 [
b1101 Q
b1 K
b1111 Y
b10 P
b0 J
b1110 X
b1 O
b101 I
b11111111 _
b11000 T
b101101000 ^
b0 V
b101 M
b1111 G
0f
b110010100000001 h
b110010100000001 j
b1110 k
b10000 W
b10010 N
b10100 a
0R
1L
b10110 g
bx 4
bx ~
b1 $"
b101 #"
b1000111111101010 =
b1000111111101010 t
b1000111111101010 z
b111000000000 C
b111000000000 s
b111000000000 y
b1010 w
b1100 p
1D
1o
#12500
0D
0o
#13000
b1011 7
b1011 {
b1010 6
b1010 |
b10110100 r
0,
b1011 9
b1010 8
b1011 2
b101101000 >
b1100 q
bx F
b1100011101010 ;
b1100011101010 v
b110100 u
b11000 ?
b101110101011 @
b11000 3
b11000 ""
b1101001 E
b1101001 <
b1101 p
b101110101011 C
b101110101011 s
b101110101011 y
bx x
b1011 w
b0 $"
b101101000 5
b101101000 }
b1110 #"
b111000000000 n
b101101000 m
b11000 Z
b1101 +
b1101 !"
b1101 [
b1 Q
b0 K
b10 Y
b0 P
b1 X
b101 O
b1110 I
b11000 _
b1101001 T
b1101001 ^
b101 V
b1111 M
b0 G
1f
b111000000000 h
b111000000000 j
b10000 k
b10010 W
b10100 H
b10110 a
0]
1R
b11000 g
1D
1o
#13500
0D
0o
#14000
b11 A
b10000 r
b0 7
b0 {
b1100 6
b1100 |
b1101 q
b100001 >
b0xx0x00xxxxxxxxx ;
b0xx0x00xxxxxxxxx v
b1110 :
b0 9
b0 8
b1100 2
bx u
b11010 ?
b0 3
b0 ""
b0 E
bx <
b101101000 F
b1110000000001100 @
b101100000000 n
b1101001 m
b0 Z
b1 +
b1 !"
b1 [
b0 Q
b1011 K
b0 Y
b1010 J
b101 X
b1110 O
b1011 I
b1101001 _
b0 T
bx ^
b101101000 S
b1111 V
b0 M
b101110101011 h
b101110101011 j
b10010 k
b10100 N
b10110 H
b11000 a
0l
1]
b11010 g
b1111111111111110 4
b1111111111111110 ~
b1010 $"
b100001 5
b100001 }
b1011 #"
bx =
bx t
bx z
b1110000000001100 C
b1110000000001100 s
b1110000000001100 y
b10110100 x
b1100 w
b1110 p
1D
1o
#14500
0D
0o
#15000
b1111 A
b1111 7
b1111 {
b1111 6
b1111 |
b0 r
1*
b1111 :
b1111 9
b1111 8
b1111 2
b0 >
b1110 q
b0 ;
b0 v
b10110100 u
b11100 ?
b1111111111111111 @
b101101000 3
b101101000 ""
b1111111111111110 E
b101101000 <
b100001 F
b1111 p
b1111111111111111 C
b1111111111111111 s
b1111111111111111 y
b10000 x
b1101 w
b1100 4
b1100 ~
b1100 $"
bx 5
bx }
b0 #"
b1110000000000000 n
bx m
b101101000 Z
b0 +
b0 !"
b0 [
b1011 Q
b1100 K
b1010 P
b0 J
b1110 X
b1011 O
11
b0 I
b0 _
b1111111111111110 T
b101101000 ^
b100001 S
b0 V
b11 G
b1110000000001100 h
b1110000000001100 j
b10100 W
b10110 N
b11000 H
b11010 a
1l
b11100 g
1D
1o
#15500
0D
0o
#16000
b1111111 r
b11111111 >
bx A
bx 7
bx {
bx 6
bx |
b1111111000000000 ;
b1111111000000000 v
b1111 q
bx :
bx 9
bx 8
bx 2
0*
1,
b10000 u
b11110 ?
b100011 3
b100011 ""
b1100 E
b100001 <
b0 F
bx @
b1111111100000000 n
b101101000 m
b100011 Z
b1011 +
b1011 !"
b1011 [
b1100 Q
b1111 K
b1010 Y
b0 P
b1111 J
b1011 X
b0 O
01
b1111 I
b1111111111111110 _
b1100 T
b100001 ^
b0 S
b11 M
b1111 G
b1111111111111111 h
b1111111111111111 j
b10100 k
b10110 W
b11000 N
b11010 H
b11100 a
b11110 g
b11111111 4
b11111111 ~
b1111 $"
b11111111 5
b11111111 }
b1111 #"
b110100000000000 =
b110100000000000 t
b110100000000000 z
bx C
bx s
bx y
b0 x
b1110 w
b10000 p
1D
1o
#16500
0D
0o
#17000
bx r
0,
x$
bx >
b1100 ;
b1100 v
x(
bx q
b0 u
bx ?
1B
b1100 3
b1100 ""
b11111111 E
b0 <
b11111111 F
b10001 p
b1000111111101010 =
b1000111111101010 t
b1000111111101010 z
b1111111 x
b1111 w
bx 4
bx ~
bx $"
bx 5
bx }
bx #"
bx11111111 n
b100001 m
1U
b1100 Z
b1100 +
b1100 !"
b1100 [
b1111 Q
bx K
b0 Y
b1111 P
bx J
b0 X
b1111 O
x1
bx I
b1100 _
b11111111 T
b0 ^
b11111111 S
b11 V
b1111 M
bx G
bx h
bx j
b10110 k
b11000 W
b11010 N
b11100 H
b11110 a
b100000 g
1D
1o
#17500
0D
0o
#18000
b110 q
b11111111xxxxxxxx ;
b11111111xxxxxxxx v
b1111111 u
0$
b1100 ?
0B
b0 3
b0 ""
bx E
b11111111 <
bx F
0(
1c
bx00000000 n
b0 m
0U
b0 Z
b1111 +
b1111 !"
b1111 [
bx Q
b1111 Y
bx P
b1111 X
bx O
b11111111 _
bx T
b11111111 ^
bx S
b1111 V
bx M
b11000 k
b11010 W
b11100 N
b11110 H
b100000 a
0l
0]
0R
0L
0b
b1100 g
bx =
bx t
bx z
bx x
bx w
b10010 p
1D
1o
#18500
0D
0o
#19000
bx ;
bx v
b111 q
bx u
b1110 ?
bx 3
bx ""
bx <
b10011 p
b110 w
0c
b11111111 m
xU
bx Z
bx +
bx !"
bx [
bx Y
bx X
bx _
bx ^
bx V
0f
b11010 k
b11100 W
b11110 N
b100000 H
b1100 a
1b
b1110 g
1D
1o
#19500
0D
0o
#20000
b111 A
b1011 7
b1011 {
b1110 6
b1110 |
b1000 q
b1111 :
b1011 9
b0 8
b1110 2
b10000 ?
b1111101100001110 @
bx n
bx m
b11100 k
b11110 W
b100000 N
b1100 H
b1110 a
1L
b10000 g
b1111101100001110 C
b1111101100001110 s
b1111101100001110 y
b111 w
b10100 p
1D
1o
#20500
0D
0o
#21000
b0 A
b1110 7
b1110 {
b1111 6
b1111 |
b10001 r
b0 :
b1110 9
b1111 8
b1 2
b100011 >
b10010 q
1$
b100100 ?
b111011110001 @
1(
b10101 p
b111011110001 C
b111011110001 s
b111011110001 y
b1000 w
b101101000 4
b101101000 ~
b1110 $"
b100011 5
b100011 }
b1011 #"
b11111011xxxxxxxx n
b1110 K
b0 J
01
b1011 I
b111 G
1f
b1111101100001110 h
b1111101100001110 j
b11110 k
b100000 W
b1100 N
b1110 H
b10000 a
1R
b10010 g
1D
1o
#21500
0D
0o
#22000
b1001 q
b101 A
0$
b0 r
b10010 ?
b1 7
b1 {
b1101 6
b1101 |
0(
b0 >
b1110 :
b1 9
b10 8
b1101 2
b101101000 E
b100011 F
b1110000100101101 @
b1110xxxxxxxx n
b1110 Q
b1 K
b0 P
b1111 J
b1011 O
b1110 I
b101101000 T
b100011 S
b111 M
b0 G
b111011110001 h
b111011110001 j
b100000 k
b1100 W
b1110 N
b10000 H
b10010 a
1]
0b
b11111111 4
b11111111 ~
b1111 $"
b101101000 5
b101101000 }
b1110 #"
b1110000100101101 C
b1110000100101101 s
b1110000100101101 y
b10001 x
b10010 w
b10110 p
1D
1o
#22500
0D
0o
#23000
b1111 A
b0 r
b0 >
b1100 7
b1100 {
b1 6
b1 |
b110 :
b1100 9
b0 8
b1 2
b110100000000001 ;
b110100000000001 v
b1010 q
b10001 u
b101100101 3
b101100101 ""
1,
b10100 ?
b110110000000001 @
b11111111 E
b100011 <
b101100101 F
b10111 p
b110010100000001 =
b110010100000001 t
b110010100000001 z
b110110000000001 C
b110110000000001 s
b110110000000001 y
b0 x
b1001 w
b11000 4
b11000 ~
b1101 $"
b1101001 5
b1101001 }
b1 #"
b11100001xxxxxxxx n
0U
b1110 +
b1110 !"
b1110 [
b1 Q
b1101 K
b0 Y
b1111 P
b10 J
b1011 X
b1110 O
b1 I
b101101000 _
b11111111 T
b100011 ^
b101101000 S
b111 V
b0 M
b101 G
b1110000100101101 h
b1110000100101101 j
b1100 k
b1110 W
b10000 N
b10010 H
1l
0L
1b
b10100 g
1D
1o
#23500
0D
0o
#24000
b110 r
b1100 >
b0 A
b1110 7
b1110 {
b0 6
b0 |
b1100110 F
b1011 q
b1111111111101010 ;
b1111111111101010 v
b0 :
b1110 9
b0 2
b10110010 u
1,
b1100110 3
b1100110 ""
b10110 ?
b11000 E
b101100101 <
b111000000000 @
b110110000000001 n
b100011 m
b1100110 Z
b1 +
b1 !"
b1 [
b1101 Q
b1 K
b1111 Y
b10 P
b0 J
b1110 X
b1 O
b1100 I
b11111111 _
b11000 T
b101100101 ^
b1101001 S
b0 V
b101 M
b1111 G
0f
b110110000000001 h
b110110000000001 j
b1110 k
b10000 W
b10010 N
b10100 a
0R
1L
b10110 g
b1101001 4
b1101001 ~
b1 $"
b1100 5
b1100 }
b1100 #"
b1000111111101010 =
b1000111111101010 t
b1000111111101010 z
b111000000000 C
b111000000000 s
b111000000000 y
b1010 w
b11000 p
1D
1o
#24500
0D
0o
#25000
b1011 7
b1011 {
b1010 6
b1010 |
b10110010 r
0,
b1011 9
b1010 8
b1011 2
b101100101 >
b11000 ;
b11000 v
b1100 q
b1100 F
b110011 u
b11000 ?
b101110101011 @
b11000 3
b11000 ""
b1100110 E
b1100110 <
b11001 p
b101110101011 C
b101110101011 s
b101110101011 y
b110 x
b1011 w
bx 4
bx ~
b0 $"
b101100101 5
b101100101 }
b1110 #"
b111000000000 n
b101100101 m
b11000 Z
b1101 +
b1101 !"
b1101 [
b1 Q
b0 K
b10 Y
b0 P
b1 X
b1100 O
b1110 I
b11000 _
b1100110 T
b1100110 ^
b1100 S
b101 V
b1111 M
b0 G
1f
b111000000000 h
b111000000000 j
b10000 k
b10010 W
b10100 H
b10110 a
0]
1R
b11000 g
1D
1o
#25500
0D
0o
#26000
b11 A
b10001 r
b0 7
b0 {
b1100 6
b1100 |
b1101 q
b100011 >
b1110 :
b0 9
b0 8
b1100 2
b1100110 ;
b1100110 v
b110 u
b11010 ?
b0 3
b0 ""
b0 E
b1100 <
b101100101 F
b1110000000001100 @
b101100000000 n
b1100110 m
b0 Z
b1 +
b1 !"
b1 [
b0 Q
b1011 K
b0 Y
b1010 J
b1100 X
b1110 O
b1011 I
b1100110 _
b0 T
b1100 ^
b101100101 S
b1111 V
b0 M
b101110101011 h
b101110101011 j
b10010 k
b10100 N
b10110 H
b11000 a
0l
1]
b11010 g
b1111111111111110 4
b1111111111111110 ~
b1010 $"
b100011 5
b100011 }
b1011 #"
b1111101100001110 =
b1111101100001110 t
b1111101100001110 z
b1110000000001100 C
b1110000000001100 s
b1110000000001100 y
b10110010 x
b1100 w
b11010 p
1D
1o
#26500
0D
0o
#27000
b1111 A
b1111 7
b1111 {
b1111 6
b1111 |
b0 r
1*
b1111 :
b1111 9
b1111 8
b1111 2
b0 >
b1110 q
b0xxxxxxxx ;
b0xxxxxxxx v
b10110010 u
b11100 ?
b1111111111111111 @
b101100101 3
b101100101 ""
b1111111111111110 E
b101100101 <
b100011 F
b11011 p
bx =
bx t
bx z
b1111111111111111 C
b1111111111111111 s
b1111111111111111 y
b10001 x
b1101 w
b1100 4
b1100 ~
b1100 $"
bx 5
bx }
b0 #"
b1110000000000000 n
b1100 m
b101100101 Z
b0 +
b0 !"
b0 [
b1011 Q
b1100 K
b1010 P
b0 J
b1110 X
b1011 O
11
b0 I
b0 _
b1111111111111110 T
b101100101 ^
b100011 S
b0 V
b11 G
b1110000000001100 h
b1110000000001100 j
b10100 W
b10110 N
b11000 H
b11010 a
1l
b11100 g
1D
1o
#27500
0D
0o
#28000
b1111111 r
b11111111 >
bx A
bx 7
bx {
bx 6
bx |
b1111 q
b1111111000000001 ;
b1111111000000001 v
bx :
bx 9
bx 8
bx 2
0*
1,
b10001 u
b11110 ?
b100101 3
b100101 ""
b1100 E
b100011 <
b0 F
bx @
b1111111100000000 n
b101100101 m
b100101 Z
b1011 +
b1011 !"
b1011 [
b1100 Q
b1111 K
b1010 Y
b0 P
b1111 J
b1011 X
b0 O
01
b1111 I
b1111111111111110 _
b1100 T
b100011 ^
b0 S
b11 M
b1111 G
b1111111111111111 h
b1111111111111111 j
b10100 k
b10110 W
b11000 N
b11010 H
b11100 a
b11110 g
b11111111 4
b11111111 ~
b1111 $"
b11111111 5
b11111111 }
b1111 #"
b110010100000001 =
b110010100000001 t
b110010100000001 z
bx C
bx s
bx y
b0 x
b1110 w
b11100 p
1D
1o
#28500
0D
0o
#29000
bx r
0,
x$
bx >
b1100 ;
b1100 v
x(
bx q
b0 u
bx ?
1B
b1100 3
b1100 ""
b11111111 E
b0 <
b11111111 F
b11101 p
b1000111111101010 =
b1000111111101010 t
b1000111111101010 z
b1111111 x
b1111 w
bx 4
bx ~
bx $"
bx 5
bx }
bx #"
bx11111111 n
b100011 m
1U
b1100 Z
b1100 +
b1100 !"
b1100 [
b1111 Q
bx K
b0 Y
b1111 P
bx J
b0 X
b1111 O
x1
bx I
b1100 _
b11111111 T
b0 ^
b11111111 S
b11 V
b1111 M
bx G
bx h
bx j
b10110 k
b11000 W
b11010 N
b11100 H
b11110 a
b100000 g
1D
1o
#29500
0D
0o
#30000
b110 q
b11111111xxxxxxxx ;
b11111111xxxxxxxx v
b1111111 u
0$
b1100 ?
0B
b0 3
b0 ""
bx E
b11111111 <
bx F
0(
1c
bx00000000 n
b0 m
0U
b0 Z
b1111 +
b1111 !"
b1111 [
bx Q
b1111 Y
bx P
b1111 X
bx O
b11111111 _
bx T
b11111111 ^
bx S
b1111 V
bx M
b11000 k
b11010 W
b11100 N
b11110 H
b100000 a
0l
0]
0R
0L
0b
b1100 g
bx =
bx t
bx z
bx x
bx w
b11110 p
1D
1o
#30500
0D
0o
#31000
bx ;
bx v
b111 q
bx u
b1110 ?
bx 3
bx ""
bx <
b11111 p
b110 w
0c
b11111111 m
xU
bx Z
bx +
bx !"
bx [
bx Y
bx X
bx _
bx ^
bx V
0f
b11010 k
b11100 W
b11110 N
b100000 H
b1100 a
1b
b1110 g
1D
1o
#31500
0D
0o
#32000
b111 A
b1011 7
b1011 {
b1110 6
b1110 |
b1000 q
b1111 :
b1011 9
b0 8
b1110 2
b10000 ?
b1111101100001110 @
bx n
bx m
b11100 k
b11110 W
b100000 N
b1100 H
b1110 a
1L
b10000 g
b1111101100001110 C
b1111101100001110 s
b1111101100001110 y
b111 w
b100000 p
1D
1o
#32500
0D
0o
#33000
b0 A
b1110 7
b1110 {
b1111 6
b1111 |
b10010 r
b0 :
b1110 9
b1111 8
b1 2
b100101 >
b10011 q
1$
b100110 ?
b111011110001 @
1(
b100001 p
b111011110001 C
b111011110001 s
b111011110001 y
b1000 w
b101100101 4
b101100101 ~
b1110 $"
b100101 5
b100101 }
b1011 #"
b11111011xxxxxxxx n
b1110 K
b0 J
01
b1011 I
b111 G
1f
b1111101100001110 h
b1111101100001110 j
b11110 k
b100000 W
b1100 N
b1110 H
b10000 a
1R
b10010 g
1D
1o
#33500
0D
0o
#34000
b1001 q
b101 A
0$
b0 r
b10010 ?
b1 7
b1 {
b1101 6
b1101 |
0(
b0 >
b1110 :
b1 9
b10 8
b1101 2
b101100101 E
b100101 F
b1110000100101101 @
b1110xxxxxxxx n
b1110 Q
b1 K
b0 P
b1111 J
b1011 O
b1110 I
b101100101 T
b100101 S
b111 M
b0 G
b111011110001 h
b111011110001 j
b100000 k
b1100 W
b1110 N
b10000 H
b10010 a
1]
0b
b11111111 4
b11111111 ~
b1111 $"
b101100101 5
b101100101 }
b1110 #"
b1110000100101101 C
b1110000100101101 s
b1110000100101101 y
b10010 x
b10011 w
b100010 p
1D
1o
#34500
0D
0o
#35000
b1111 A
b0 r
b0 >
b1100 7
b1100 {
b1 6
b1 |
b110 :
b1100 9
b0 8
b1 2
b110010100000001 ;
b110010100000001 v
b1010 q
b10010 u
b101101100 3
b101101100 ""
1,
b10100 ?
b110110000000001 @
b11111111 E
b100101 <
b101101100 F
b100011 p
b110110000000001 =
b110110000000001 t
b110110000000001 z
b110110000000001 C
b110110000000001 s
b110110000000001 y
b0 x
b1001 w
b11000 4
b11000 ~
b1101 $"
b1100110 5
b1100110 }
b1 #"
b11100001xxxxxxxx n
0U
b1110 +
b1110 !"
b1110 [
b1 Q
b1101 K
b0 Y
b1111 P
b10 J
b1011 X
b1110 O
b1 I
b101100101 _
b11111111 T
b100101 ^
b101100101 S
b111 V
b0 M
b101 G
b1110000100101101 h
b1110000100101101 j
b1100 k
b1110 W
b10000 N
b10010 H
1l
0L
1b
b10100 g
1D
1o
#35500
0D
0o
#36000
b110 r
b1100 >
b0 A
b1110 7
b1110 {
b0 6
b0 |
b1101101 F
b1011 q
b11111111 ;
b11111111 v
b0 :
b1110 9
b0 2
b10110110 u
1,
b1101101 3
b1101101 ""
b10110 ?
b11000 E
b101101100 <
b111000000000 @
b110110000000001 n
b100101 m
b1101101 Z
b1 +
b1 !"
b1 [
b1101 Q
b1 K
b1111 Y
b10 P
b0 J
b1110 X
b1 O
b1100 I
b11111111 _
b11000 T
b101101100 ^
b1100110 S
b0 V
b101 M
b1111 G
0f
b110110000000001 h
b110110000000001 j
b1110 k
b10000 W
b10010 N
b10100 a
0R
1L
b10110 g
b1100110 4
b1100110 ~
b1 $"
b1100 5
b1100 }
b1100 #"
b1000111111101010 =
b1000111111101010 t
b1000111111101010 z
b111000000000 C
b111000000000 s
b111000000000 y
b1010 w
b100100 p
1D
1o
#36500
0D
0o
